{
  "login": {
    "lecturerCode": "GVDHKH1",
    "password": "123456"
  },
  "user": {
        "data": {
            "firstName": "Lương",
            "lastName": "Trần Thanh",
            "departmentName": "Khoa công nghệ và kĩ thuật",
            "email": "ttluong@gmail.com",
            "lecturerCode": "GVDHKH1",
            "role": [
                "tao_ctdt",
                "duyet_ctdt"
            ]
        },
        "token": "bsjbdnvknkfgvnrnnfkv",
        "status": 200
    },
  "user-": {
    "data": {
      "lecturerCode": "Message nếu có lỗi",
      "password": "Message nếu có lỗi"
    },
    "status": 401
  },
  "search-program": {
    "data": [
      {
        "maChuongTrinhDaoTao": "KH23671",
        "tenChuongTrinhDaoTao": "Công nghệ thông tin",
        "tenNganhDaoTao": "Công nghệ thông tin",
        "trangThai": "",
        "id": "10005",
        "stt": "1",
        "nguoiPhuTrach": "Trần Thanh Lương",
        "created_at": "23/06/2023",
        "updated_at": "23/06/2023"
      },
      {
        "maChuongTrinhDaoTao": "KH24125",
        "tenChuongTrinhDaoTao": "Kĩ thuật phần mềm",
        "tenNganhDaoTao": "Kỹ thuật phần mềm",
        "trangThai": "",
        "id": "10006",
        "stt": "2",
        "nguoiPhuTrach": "Hoàng Hà",
        "created_at": "23/06/2023",
        "updated_at": "23/06/2023"
      },
      {
        "maChuongTrinhDaoTao": "KH24123",
        "tenChuongTrinhDaoTao": "Kiến Trúc",
        "tenNganhDaoTao": "Kiến trúc",
        "trangThai": "",
        "id": "10007",
        "stt": "3",
        "nguoiPhuTrach": "Thái Nhật Trường",
        "created_at": "13/07/2023",
        "updated_at": "13/07/2023"
      },
      {
        "maChuongTrinhDaoTao": "KH24122",
        "tenChuongTrinhDaoTao": "Báo chí",
        "tenNganhDaoTao": "Báo chí",
        "trangThai": "",
        "id": "10012",
        "stt": "4",
        "nguoiPhuTrach": "Trần Thanh Lương",
        "created_at": "13/07/2023",
        "updated_at": "03/07/2023"
      }
    ],
    "pageInformation": {
      "numOfElement": 10,
      "pageSize": 10,
      "offset": 0,
      "firstPage": true,
      "lastPage": false,
      "totalPages": 3,
      "totalElements": 25
    },
    "status": 200
  }
}